{
  "slug": "pycharm-community",
  "section": "python",
  "logo": "pycharm.svg",
  "name": "PyCharm Community",
  "developer": "JetBrains",
  "version": {
    "name": "2023.3",
    "date": "08 / 12 / 2023"
  },
  "platforms": ["Linux", "Windows", "MacOS"],
  "text": [
    "<<<PUT_IMG_HERE>>>",
    "PyCharm — это кроссплатформенная интегрированная среда разработки для языка программирования Python, разработанная компанией JetBrains на основе IntelliJ IDEA. Предоставляет пользователю комплекс средств для написания кода и визуальный отладчик.Продукт доступен в двух версиях: PyCharm Community Edition — бесплатная версия, находится под лицензией Apache License, и PyCharm Professional Edition — расширенная версия продукта, обладающая дополнительной функциональностью, является проприетарным ПО.",
    "PyCharm обладает широким спектром функций для повышения эффективности разработки, таких как инструменты для рефакторинга кода, анализа качества кода, быстрого просмотра и навигации по проекту. Он также имеет встроенный терминал для выполнения команд и скриптов, что упрощает работу с системой."
  ],
  "images": [
    {
      "url": "https://i.stack.imgur.com/ODxbb.png",
      "description": "Окно PyCharm Community 2016"
    }
  ],
  "website": "https://www.jetbrains.com/pycharm/",
  "pros": [
    "Кроссплатформенность",
    "Современное оформление",
    "Открытый исходный код",
    "Высокая стабильность",
    "Поддержка плагинов для расширения функциональности"
  ],
  "cons": [
    "Относительная ресурсоемкость среды, т.к. PyCharm создан на базе IntelliJ IDEA",
    "Поддержка распространенных фреймворков есть только в платной версии"
  ],
  "featureset": [
    "Поддержка Windows",
    "Поддержка Linux",
    "Поддержка MacOS",
    "Работа с Git",
    "Разработка на Python",
    "Инструменты отладки",
    "Есть темное оформление"
  ]
}
